<svg xmlns="http://www.w3.org/2000/svg" width="11" height="9" viewBox="0 0 11 9">
    <path fill="#4DC781" fill-rule="evenodd" d="M9.3.3L3 6.6 1.7 5.3c-.4-.4-1-.4-1.4 0-.4.4-.4 1 0 1.4l2 2c.2.2.4.3.7.3.3 0 .5-.1.7-.3l7-7c.4-.4.4-1 0-1.4-.4-.4-1-.4-1.4 0z"/>
</svg>
