<svg xmlns="http://www.w3.org/2000/svg" width="16" height="16" viewBox="0 0 16 16">
    <circle cx="424" cy="1054" r="7" fill="#FFF" fill-rule="evenodd" stroke="#B6B6B6" transform="translate(-416 -1046)"/>
</svg>
